AXI_Stream_ASYN_FIFO/dump.vcd
$date
	Sun Aug 18 14:18:12 2024
$end
$version
	Questa Intel Starter FPGA Edition Version 2021.2
$end
$timescale
	1ns
$end

$scope module async_fifo_TB $end
$var parameter 32 ! DATA_WIDTH $end
$var wire 1 " data_out [7] $end
$var wire 1 # data_out [6] $end
$var wire 1 $ data_out [5] $end
$var wire 1 % data_out [4] $end
$var wire 1 & data_out [3] $end
$var wire 1 ' data_out [2] $end
$var wire 1 ( data_out [1] $end
$var wire 1 ) data_out [0] $end
$var wire 1 * full $end
$var wire 1 + empty $end
$var reg 8 , data_in [7:0] $end
$var reg 1 - w_en $end
$var reg 1 . wclk $end
$var reg 1 / wrst_n $end
$var reg 1 0 r_en $end
$var reg 1 1 rclk $end
$var reg 1 2 rrst_n $end
$var reg 8 3 wdata [7:0] $end

$scope module as_fifo $end
$var parameter 32 4 DEPTH $end
$var parameter 32 5 DATA_WIDTH $end
$var parameter 32 6 PTR_WIDTH $end
$var wire 1 7 wclk $end
$var wire 1 8 wrst_n $end
$var wire 1 9 rclk $end
$var wire 1 : rrst_n $end
$var wire 1 ; w_en $end
$var wire 1 < r_en $end
$var wire 1 = data_in [7] $end
$var wire 1 > data_in [6] $end
$var wire 1 ? data_in [5] $end
$var wire 1 @ data_in [4] $end
$var wire 1 A data_in [3] $end
$var wire 1 B data_in [2] $end
$var wire 1 C data_in [1] $end
$var wire 1 D data_in [0] $end
$var wire 1 " data_out [7] $end
$var wire 1 # data_out [6] $end
$var wire 1 $ data_out [5] $end
$var wire 1 % data_out [4] $end
$var wire 1 & data_out [3] $end
$var wire 1 ' data_out [2] $end
$var wire 1 ( data_out [1] $end
$var wire 1 ) data_out [0] $end
$var wire 1 * full $end
$var wire 1 + empty $end
$var wire 1 E g_wptr_sync [3] $end
$var wire 1 F g_wptr_sync [2] $end
$var wire 1 G g_wptr_sync [1] $end
$var wire 1 H g_wptr_sync [0] $end
$var wire 1 I g_rptr_sync [3] $end
$var wire 1 J g_rptr_sync [2] $end
$var wire 1 K g_rptr_sync [1] $end
$var wire 1 L g_rptr_sync [0] $end
$var wire 1 M b_wptr [3] $end
$var wire 1 N b_wptr [2] $end
$var wire 1 O b_wptr [1] $end
$var wire 1 P b_wptr [0] $end
$var wire 1 Q b_rptr [3] $end
$var wire 1 R b_rptr [2] $end
$var wire 1 S b_rptr [1] $end
$var wire 1 T b_rptr [0] $end
$var wire 1 U g_wptr [3] $end
$var wire 1 V g_wptr [2] $end
$var wire 1 W g_wptr [1] $end
$var wire 1 X g_wptr [0] $end
$var wire 1 Y g_rptr [3] $end
$var wire 1 Z g_rptr [2] $end
$var wire 1 [ g_rptr [1] $end
$var wire 1 \ g_rptr [0] $end
$var wire 1 ] waddr [2] $end
$var wire 1 ^ waddr [1] $end
$var wire 1 _ waddr [0] $end
$var wire 1 ` raddr [2] $end
$var wire 1 a raddr [1] $end
$var wire 1 b raddr [0] $end

$scope module sync_wptr $end
$var parameter 32 c WIDTH $end
$var wire 1 9 clk $end
$var wire 1 : rst_n $end
$var wire 1 U d_in [3] $end
$var wire 1 V d_in [2] $end
$var wire 1 W d_in [1] $end
$var wire 1 X d_in [0] $end
$var reg 4 d d_out [3:0] $end
$var reg 4 e q1 [3:0] $end
$upscope $end

$scope module sync_rptr $end
$var parameter 32 f WIDTH $end
$var wire 1 7 clk $end
$var wire 1 8 rst_n $end
$var wire 1 Y d_in [3] $end
$var wire 1 Z d_in [2] $end
$var wire 1 [ d_in [1] $end
$var wire 1 \ d_in [0] $end
$var reg 4 g d_out [3:0] $end
$var reg 4 h q1 [3:0] $end
$upscope $end

$scope module wptr_h $end
$var parameter 32 i PTR_WIDTH $end
$var wire 1 7 wclk $end
$var wire 1 8 wrst_n $end
$var wire 1 ; w_en $end
$var wire 1 I g_rptr_sync [3] $end
$var wire 1 J g_rptr_sync [2] $end
$var wire 1 K g_rptr_sync [1] $end
$var wire 1 L g_rptr_sync [0] $end
$var reg 4 j b_wptr [3:0] $end
$var reg 4 k g_wptr [3:0] $end
$var reg 1 l full $end
$var wire 1 m b_wptr_next [3] $end
$var wire 1 n b_wptr_next [2] $end
$var wire 1 o b_wptr_next [1] $end
$var wire 1 p b_wptr_next [0] $end
$var wire 1 q g_wptr_next [3] $end
$var wire 1 r g_wptr_next [2] $end
$var wire 1 s g_wptr_next [1] $end
$var wire 1 t g_wptr_next [0] $end
$var reg 1 u wrap_around $end
$var wire 1 v wfull $end
$upscope $end

$scope module rptr_h $end
$var parameter 32 w PTR_WIDTH $end
$var wire 1 9 rclk $end
$var wire 1 : rrst_n $end
$var wire 1 < r_en $end
$var wire 1 E g_wptr_sync [3] $end
$var wire 1 F g_wptr_sync [2] $end
$var wire 1 G g_wptr_sync [1] $end
$var wire 1 H g_wptr_sync [0] $end
$var reg 4 x b_rptr [3:0] $end
$var reg 4 y g_rptr [3:0] $end
$var reg 1 z empty $end
$var wire 1 { b_rptr_next [3] $end
$var wire 1 | b_rptr_next [2] $end
$var wire 1 } b_rptr_next [1] $end
$var wire 1 ~ b_rptr_next [0] $end
$var wire 1 !! g_rptr_next [3] $end
$var wire 1 "! g_rptr_next [2] $end
$var wire 1 #! g_rptr_next [1] $end
$var wire 1 $! g_rptr_next [0] $end
$var wire 1 %! rempty $end
$upscope $end

$scope module fifom $end
$var parameter 32 &! DEPTH $end
$var parameter 32 '! DATA_WIDTH $end
$var parameter 32 (! PTR_WIDTH $end
$var wire 1 7 wclk $end
$var wire 1 ; w_en $end
$var wire 1 9 rclk $end
$var wire 1 < r_en $end
$var wire 1 M b_wptr [3] $end
$var wire 1 N b_wptr [2] $end
$var wire 1 O b_wptr [1] $end
$var wire 1 P b_wptr [0] $end
$var wire 1 Q b_rptr [3] $end
$var wire 1 R b_rptr [2] $end
$var wire 1 S b_rptr [1] $end
$var wire 1 T b_rptr [0] $end
$var wire 1 = data_in [7] $end
$var wire 1 > data_in [6] $end
$var wire 1 ? data_in [5] $end
$var wire 1 @ data_in [4] $end
$var wire 1 A data_in [3] $end
$var wire 1 B data_in [2] $end
$var wire 1 C data_in [1] $end
$var wire 1 D data_in [0] $end
$var wire 1 * full $end
$var wire 1 + empty $end
$var wire 1 " data_out [7] $end
$var wire 1 # data_out [6] $end
$var wire 1 $ data_out [5] $end
$var wire 1 % data_out [4] $end
$var wire 1 & data_out [3] $end
$var wire 1 ' data_out [2] $end
$var wire 1 ( data_out [1] $end
$var wire 1 ) data_out [0] $end
$upscope $end
$upscope $end
$upscope $end

$scope begin std $end
$upscope $end
$enddefinitions $end
#0
$dumpvars
b0 ,
0-
0.
0/
00
01
02
bx 3
bx d
bx e
bx g
bx h
b0 j
b0 k
0l
xu
b0 x
b0 y
1z
b1000 !
b1000 4
b1000 5
b11 6
b11 c
b11 f
b11 i
b11 w
b1000 &!
b1000 '!
b11 (!
x)
x(
x'
x&
x%
x$
x#
x"
0*
1+
xH
xG
xF
xE
xL
xK
xJ
xI
0P
0O
0N
0M
0T
0S
0R
0Q
0X
0W
0V
0U
0\
0[
0Z
0Y
z_
z^
z]
zb
za
z`
0p
0o
0n
0m
0t
0s
0r
0q
xv
0~
0}
0|
0{
0$!
0#!
0"!
0!!
x%!
0D
0C
0B
0A
0@
0?
0>
0=
0<
0;
0:
09
08
07
$end
#10
1.
17
b0 h
b0 g
0L
0K
0J
0I
0v
#20
0.
07
#30
1.
17
#35
11
19
b0 e
b0 d
0H
0G
0F
0E
1%!
#40
0.
07
#50
1.
17
#60
0.
07
#70
01
1.
09
17
#80
0.
07
#90
1.
17
#100
0.
07
#105
11
19
#110
1.
17
#120
0.
07
#130
1.
17
#140
01
0.
09
07
#150
1.
17
#160
0.
07
#170
1.
17
#175
11
19
#180
0.
07
#190
1.
17
1/
18
#200
0.
07
#210
01
1.
09
17
1-
b1110010 ,
1;
1C
1@
1?
1>
1p
1t
#220
0.
07
#230
1.
17
0-
0;
0p
0t
b1 j
b1 k
0)
1(
0'
0&
1%
1$
1#
0"
1X
1P
1p
1t
#240
0.
07
#245
11
19
#250
1.
17
1-
b10110010 ,
1;
0>
1=
0p
1o
1s
#260
0.
07
#270
1.
17
0-
0;
1p
0o
0s
b10 j
b11 k
1W
0P
1O
0p
1o
1s
#280
01
0.
09
07
#290
1.
17
1-
b10000 ,
1;
0C
0?
0=
1p
0t
#300
0.
07
#310
1.
17
0-
0;
0p
1t
b11 j
b10 k
0X
1P
1p
0t
#315
11
19
#320
0.
07
#330
1.
17
1-
b110000 ,
1;
1?
0p
0o
1n
1r
#340
0.
07
#350
01
1.
09
17
0-
0;
1p
1o
0n
0r
b100 j
b110 k
1V
0P
0O
1N
0p
0o
1n
1r
#360
0.
07
#370
1.
17
1-
b10110101 ,
1;
1D
1B
1=
1p
1t
#380
0.
07
#385
11
19
#390
1.
17
0-
0;
0p
0t
b101 j
b111 k
1X
1P
1p
1t
#400
0.
07
#410
1.
17
1-
b10110110 ,
1;
0D
1C
0p
1o
0s
#420
01
0.
09
07
#430
1.
17
0-
0;
1p
0o
1s
b110 j
b101 k
0W
0P
1O
0p
1o
0s
#440
0.
07
#450
1.
17
1-
b10100 ,
1;
0C
0?
0=
1p
0t
#455
11
19
#460
0.
07
#470
1.
17
0-
0;
0p
1t
b111 j
b100 k
0X
1P
1p
0t
#480
0.
07
#490
01
1.
09
17
1-
b11011111 ,
1;
1D
1C
1A
1>
1=
0p
0o
0n
1m
1q
1v
#500
0.
07
#510
1.
17
0-
0;
1p
1o
1n
0m
0q
0v
1l
b1000 j
b1100 k
1*
1U
0P
0O
0N
1M
0p
0o
0n
1m
1q
1v
